mc20_13TeV.514729.MGPy8EG_A14N23LO_RS_G_hh_bbbb_c10_M1000.deriv.DAOD_PHYS.e8470_s3681_r13144_p5658
mc20_13TeV.514729.MGPy8EG_A14N23LO_RS_G_hh_bbbb_c10_M1000.deriv.DAOD_PHYS.e8470_s3681_r13145_p5658
mc20_13TeV.514729.MGPy8EG_A14N23LO_RS_G_hh_bbbb_c10_M1000.deriv.DAOD_PHYS.e8470_s3681_r13167_p5658
mc20_13TeV.514734.MGPy8EG_A14N23LO_RS_G_hh_bbbb_c10_M1500.deriv.DAOD_PHYS.e8470_s3681_r13144_p5658
mc20_13TeV.514734.MGPy8EG_A14N23LO_RS_G_hh_bbbb_c10_M1500.deriv.DAOD_PHYS.e8470_s3681_r13145_p5658
mc20_13TeV.514734.MGPy8EG_A14N23LO_RS_G_hh_bbbb_c10_M1500.deriv.DAOD_PHYS.e8470_s3681_r13167_p5658
mc20_13TeV.514737.MGPy8EG_A14N23LO_RS_G_hh_bbbb_c10_M2000.deriv.DAOD_PHYS.e8470_s3681_r13144_p5658
mc20_13TeV.514737.MGPy8EG_A14N23LO_RS_G_hh_bbbb_c10_M2000.deriv.DAOD_PHYS.e8470_s3681_r13145_p5658
mc20_13TeV.514737.MGPy8EG_A14N23LO_RS_G_hh_bbbb_c10_M2000.deriv.DAOD_PHYS.e8470_s3681_r13167_p5658
mc20_13TeV.514739.MGPy8EG_A14N23LO_RS_G_hh_bbbb_c10_M2500.deriv.DAOD_PHYS.e8470_s3681_r13144_p5658
mc20_13TeV.514739.MGPy8EG_A14N23LO_RS_G_hh_bbbb_c10_M2500.deriv.DAOD_PHYS.e8470_s3681_r13145_p5658
mc20_13TeV.514739.MGPy8EG_A14N23LO_RS_G_hh_bbbb_c10_M2500.deriv.DAOD_PHYS.e8470_s3681_r13167_p5658
mc20_13TeV.514741.MGPy8EG_A14N23LO_RS_G_hh_bbbb_c10_M3000.deriv.DAOD_PHYS.e8470_s3681_r13144_p5658
mc20_13TeV.514741.MGPy8EG_A14N23LO_RS_G_hh_bbbb_c10_M3000.deriv.DAOD_PHYS.e8470_s3681_r13145_p5658
mc20_13TeV.514741.MGPy8EG_A14N23LO_RS_G_hh_bbbb_c10_M3000.deriv.DAOD_PHYS.e8470_s3681_r13167_p5658
