mc20_13TeV.410646.PowhegPythia8EvtGen_A14_Wt_DR_inclusive_top.deriv.DAOD_PHYSLITE.e6552_s3681_r13144_p5855
mc20_13TeV.410646.PowhegPythia8EvtGen_A14_Wt_DR_inclusive_top.deriv.DAOD_PHYSLITE.e6552_s3681_r13145_p5855
mc20_13TeV.410646.PowhegPythia8EvtGen_A14_Wt_DR_inclusive_top.deriv.DAOD_PHYSLITE.e6552_s3681_r13167_p5855

mc20_13TeV.410647.PowhegPythia8EvtGen_A14_Wt_DR_inclusive_antitop.deriv.DAOD_PHYSLITE.e6552_s3681_r13144_p5855
mc20_13TeV.410647.PowhegPythia8EvtGen_A14_Wt_DR_inclusive_antitop.deriv.DAOD_PHYSLITE.e6552_s3681_r13145_p5855
mc20_13TeV.410647.PowhegPythia8EvtGen_A14_Wt_DR_inclusive_antitop.deriv.DAOD_PHYSLITE.e6552_s3681_r13167_p5855

mc20_13TeV.410560.MadGraphPythia8EvtGen_A14_tZ_4fl_tchan_noAllHad.deriv.DAOD_PHYSLITE.e5803_s3681_r13144_p5855
mc20_13TeV.410560.MadGraphPythia8EvtGen_A14_tZ_4fl_tchan_noAllHad.deriv.DAOD_PHYSLITE.e5803_s3681_r13145_p5855
mc20_13TeV.410560.MadGraphPythia8EvtGen_A14_tZ_4fl_tchan_noAllHad.deriv.DAOD_PHYSLITE.e5803_s3681_r13167_p5855

mc20_13TeV.410408.aMcAtNloPythia8EvtGen_tWZ_Ztoll_minDR1.deriv.DAOD_PHYSLITE.e6423_s3681_r13144_p5855
mc20_13TeV.410408.aMcAtNloPythia8EvtGen_tWZ_Ztoll_minDR1.deriv.DAOD_PHYSLITE.e6423_s3681_r13145_p5855
mc20_13TeV.410408.aMcAtNloPythia8EvtGen_tWZ_Ztoll_minDR1.deriv.DAOD_PHYSLITE.e6423_s3681_r13167_p5855