mc20_13TeV.345319.PowhegPythia8EvtGen_NNPDF30_AZNLO_ZH125J_Hyy_Zincl_MINLO.deriv.DAOD_PHYSLITE.e5743_s3681_r13167_p6266
mc20_13TeV.345319.PowhegPythia8EvtGen_NNPDF30_AZNLO_ZH125J_Hyy_Zincl_MINLO.deriv.DAOD_PHYSLITE.e5743_s3681_r13144_p6266
mc20_13TeV.345319.PowhegPythia8EvtGen_NNPDF30_AZNLO_ZH125J_Hyy_Zincl_MINLO.deriv.DAOD_PHYSLITE.e5743_s3681_r13145_p6266
