mc20_13TeV:mc20_13TeV.346343.PhPy8EG_A14NNPDF23_NNPDF30ME_ttH125_allhad.deriv.DAOD_PHYSLITE.e7148_s3681_r13144_r13146_p5855
mc20_13TeV:mc20_13TeV.346343.PhPy8EG_A14NNPDF23_NNPDF30ME_ttH125_allhad.deriv.DAOD_PHYSLITE.e7148_s3681_r13145_r13146_p5855
mc20_13TeV:mc20_13TeV.346343.PhPy8EG_A14NNPDF23_NNPDF30ME_ttH125_allhad.deriv.DAOD_PHYSLITE.e7148_s3681_r13167_r13146_p5855
mc20_13TeV:mc20_13TeV.346344.PhPy8EG_A14NNPDF23_NNPDF30ME_ttH125_semilep.deriv.DAOD_PHYSLITE.e7148_s3681_r13144_r13146_p5855
mc20_13TeV:mc20_13TeV.346344.PhPy8EG_A14NNPDF23_NNPDF30ME_ttH125_semilep.deriv.DAOD_PHYSLITE.e7148_s3681_r13145_r13146_p5855
mc20_13TeV:mc20_13TeV.346344.PhPy8EG_A14NNPDF23_NNPDF30ME_ttH125_semilep.deriv.DAOD_PHYSLITE.e7148_s3681_r13167_r13146_p5855
mc20_13TeV:mc20_13TeV.346345.PhPy8EG_A14NNPDF23_NNPDF30ME_ttH125_dilep.deriv.DAOD_PHYSLITE.e7148_s3681_r13144_r13146_p5855
mc20_13TeV:mc20_13TeV.346345.PhPy8EG_A14NNPDF23_NNPDF30ME_ttH125_dilep.deriv.DAOD_PHYSLITE.e7148_s3681_r13145_r13146_p5855
mc20_13TeV:mc20_13TeV.346345.PhPy8EG_A14NNPDF23_NNPDF30ME_ttH125_dilep.deriv.DAOD_PHYSLITE.e7148_s3681_r13167_r13146_p5855
