mc20_13TeV.345055.PowhegPythia8EvtGen_NNPDF3_AZNLO_ZH125J_MINLO_llbb_VpT.deriv.DAOD_PHYS.e5706_s3681_r13144_p6266
mc20_13TeV.345055.PowhegPythia8EvtGen_NNPDF3_AZNLO_ZH125J_MINLO_llbb_VpT.deriv.DAOD_PHYS.e5706_s3681_r13145_p6266
mc20_13TeV.345055.PowhegPythia8EvtGen_NNPDF3_AZNLO_ZH125J_MINLO_llbb_VpT.deriv.DAOD_PHYS.e5706_s3681_r13167_p6266

mc20_13TeV.345057.PowhegPythia8EvtGen_NNPDF3_AZNLO_ggZH125_llbb.deriv.DAOD_PHYS.e5706_s3681_r13144_p6266
mc20_13TeV.345057.PowhegPythia8EvtGen_NNPDF3_AZNLO_ggZH125_llbb.deriv.DAOD_PHYS.e5706_s3681_r13145_p6266
mc20_13TeV.345057.PowhegPythia8EvtGen_NNPDF3_AZNLO_ggZH125_llbb.deriv.DAOD_PHYS.e5706_s3681_r13167_p6266

mc20_13TeV.345111.PowhegPythia8EvtGen_NNPDF3_AZNLO_ZH125J_MINLO_llcc_VpT.deriv.DAOD_PHYS.e5765_s3681_r13144_p6266
mc20_13TeV.345111.PowhegPythia8EvtGen_NNPDF3_AZNLO_ZH125J_MINLO_llcc_VpT.deriv.DAOD_PHYS.e5765_s3681_r13145_p6266
mc20_13TeV.345111.PowhegPythia8EvtGen_NNPDF3_AZNLO_ZH125J_MINLO_llcc_VpT.deriv.DAOD_PHYS.e5765_s3681_r13167_p6266

mc20_13TeV.345113.PowhegPythia8EvtGen_NNPDF3_AZNLO_ggZH125_llcc.deriv.DAOD_PHYS.e5765_s3681_r13144_p6266
mc20_13TeV.345113.PowhegPythia8EvtGen_NNPDF3_AZNLO_ggZH125_llcc.deriv.DAOD_PHYS.e5765_s3681_r13145_p6266
mc20_13TeV.345113.PowhegPythia8EvtGen_NNPDF3_AZNLO_ggZH125_llcc.deriv.DAOD_PHYS.e5765_s3681_r13167_p6266
